<?xml version="1.0" encoding="UTF-8" standalone="no"?>
<svg
   xmlns:dc="http://purl.org/dc/elements/1.1/"
   xmlns:cc="http://creativecommons.org/ns#"
   xmlns:rdf="http://www.w3.org/1999/02/22-rdf-syntax-ns#"
   xmlns:svg="http://www.w3.org/2000/svg"
   xmlns="http://www.w3.org/2000/svg"
   xmlns:sodipodi="http://sodipodi.sourceforge.net/DTD/sodipodi-0.dtd"
   xmlns:inkscape="http://www.inkscape.org/namespaces/inkscape"
   width="64.286011mm"
   height="24.315777mm"
   viewBox="0 0 64.286009 24.315776"
   version="1.1"
   id="svg8"
   inkscape:version="1.0.2 (e86c870879, 2021-01-15, custom)"
   sodipodi:docname="runner_logo_documentation.svg"
   inkscape:export-filename="/home/kalm/dcmnts/uni/ak_behler/src/runner-clean/docs/images/runner_logo_documentation.png"
   inkscape:export-xdpi="96.000008"
   inkscape:export-ydpi="96.000008">
  <defs
     id="defs2" />
  <sodipodi:namedview
     id="base"
     pagecolor="#ffffff"
     bordercolor="#666666"
     borderopacity="1.0"
     inkscape:pageopacity="0.0"
     inkscape:pageshadow="2"
     inkscape:zoom="2.8"
     inkscape:cx="130.29671"
     inkscape:cy="83.862815"
     inkscape:document-units="mm"
     inkscape:current-layer="layer1"
     inkscape:document-rotation="0"
     showgrid="false"
     inkscape:window-width="1920"
     inkscape:window-height="1007"
     inkscape:window-x="1920"
     inkscape:window-y="0"
     inkscape:window-maximized="1" />
  <metadata
     id="metadata5">
    <rdf:RDF>
      <cc:Work
         rdf:about="">
        <dc:format>image/svg+xml</dc:format>
        <dc:type
           rdf:resource="http://purl.org/dc/dcmitype/StillImage" />
        <dc:title />
      </cc:Work>
    </rdf:RDF>
  </metadata>
  <g
     inkscape:label="Layer 1"
     inkscape:groupmode="layer"
     id="layer1"
     transform="translate(-176.30855,-144.25249)">
    <g
       id="g911"
       transform="translate(1.4714633,0.47821141)">
      <path
         style="fill:none;stroke:#fefeff;stroke-width:0.182299;stroke-linecap:butt;stroke-linejoin:miter;stroke-miterlimit:4;stroke-dasharray:none;stroke-opacity:1"
         d="m 180.58269,153.44162 2.72963,2.14223"
         id="path895-5"
         sodipodi:nodetypes="cc" />
      <path
         style="fill:none;stroke:#ffffff;stroke-width:0.182299;stroke-linecap:butt;stroke-linejoin:miter;stroke-miterlimit:4;stroke-dasharray:none;stroke-opacity:1"
         d="m 180.58269,153.44162 c 0,0 2.90361,-6.51731 2.81034,-6.41223"
         id="path895-3"
         sodipodi:nodetypes="cc" />
      <path
         style="fill:none;stroke:#fefeff;stroke-width:0.182299;stroke-linecap:butt;stroke-linejoin:miter;stroke-miterlimit:4;stroke-dasharray:none;stroke-opacity:1"
         d="m 180.58269,153.44162 c 0.11586,-0.10321 2.33596,-2.17156 2.50155,-2.31649"
         id="path895-5-6-7-0"
         sodipodi:nodetypes="cc" />
      <path
         style="fill:none;stroke:#f85e08;stroke-width:1.01277;stroke-linecap:butt;stroke-linejoin:miter;stroke-miterlimit:4;stroke-dasharray:none;stroke-opacity:1"
         d="m 180.58269,153.44162 1.77849,-0.0645 1.46947,-5.10614"
         id="path986"
         sodipodi:nodetypes="ccc" />
      <path
         style="fill:none;stroke:#f85e08;stroke-width:1.01277;stroke-linecap:butt;stroke-linejoin:miter;stroke-miterlimit:4;stroke-dasharray:none;stroke-opacity:1"
         d="m 182.86055,151.98433 2.62447,1.29498 -0.6976,2.44251"
         id="path988"
         sodipodi:nodetypes="ccc" />
      <path
         style="fill:none;stroke:#f85e08;stroke-width:1.01277;stroke-linecap:butt;stroke-linejoin:miter;stroke-miterlimit:4;stroke-dasharray:none;stroke-opacity:1"
         d="m 180.56758,148.78549 c 1.6,-1.12099 2.71656,-0.70376 3.4528,-0.24561 0.97555,0.6946 1.14776,1.11937 2.20019,2.13264 l 1.63368,0.5431"
         id="path990"
         sodipodi:nodetypes="cccc" />
      <path
         style="fill:none;stroke:#ffffff;stroke-width:0.182299;stroke-linecap:butt;stroke-linejoin:miter;stroke-miterlimit:4;stroke-dasharray:none;stroke-opacity:1"
         d="m 185.70753,151.14582 2.39319,0.007"
         id="path1170"
         sodipodi:nodetypes="cc" />
      <path
         style="fill:none;stroke:#fefeff;stroke-width:0.182299;stroke-linecap:butt;stroke-linejoin:miter;stroke-miterlimit:4;stroke-dasharray:none;stroke-opacity:1"
         d="m 180.56758,148.78549 c -0.0733,0.0304 2.99121,-1.86227 2.82545,-1.7561"
         id="path895"
         sodipodi:nodetypes="cc" />
      <path
         style="fill:none;stroke:#fefeff;stroke-width:0.182299;stroke-linecap:butt;stroke-linejoin:miter;stroke-miterlimit:4;stroke-dasharray:none;stroke-opacity:1"
         d="m 180.56758,148.78549 c -0.0294,-0.0864 2.80507,6.95232 2.74474,6.79836"
         id="path895-5-6"
         sodipodi:nodetypes="cc" />
      <path
         style="fill:none;stroke:#fefeff;stroke-width:0.182299;stroke-linecap:butt;stroke-linejoin:miter;stroke-miterlimit:4;stroke-dasharray:none;stroke-opacity:1"
         d="m 185.35944,147.06012 2.70594,4.101"
         id="path895-2"
         sodipodi:nodetypes="cc" />
      <path
         style="fill:none;stroke:#fefeff;stroke-width:0.182299;stroke-linecap:butt;stroke-linejoin:miter;stroke-miterlimit:4;stroke-dasharray:none;stroke-opacity:1"
         d="m 185.50175,155.47087 2.53977,-4.31444"
         id="path895-2-9"
         sodipodi:nodetypes="cc" />
      <circle
         style="fill:#081e48;fill-opacity:1;stroke:none;stroke-width:0.101277;stroke-linecap:round;stroke-linejoin:round;stroke-miterlimit:4;stroke-dasharray:none;stroke-opacity:1;stop-color:#000000"
         id="path835-3-5"
         sodipodi:type="arc"
         sodipodi:cx="189.36789"
         sodipodi:cy="151.14569"
         sodipodi:rx="1.4071107"
         sodipodi:ry="1.4071107"
         sodipodi:start="3.1455371"
         sodipodi:end="3.1053073"
         sodipodi:open="true"
         sodipodi:arc-type="arc"
         d="m 187.96079,151.14014 a 1.4071107,1.4071107 0 0 1 1.3985,-1.40153 1.4071107,1.4071107 0 0 1 1.41553,1.38433 1.4071107,1.4071107 0 0 1 -1.37003,1.42938 1.4071107,1.4071107 0 0 1 -1.44309,-1.35558" />
      <circle
         style="fill:#f85e08;fill-opacity:1;stroke:none;stroke-width:0.101277;stroke-linecap:round;stroke-linejoin:round;stop-color:#000000"
         id="path835-3-7"
         sodipodi:type="arc"
         sodipodi:cx="184.3968"
         sodipodi:cy="146.22653"
         sodipodi:rx="1.4071107"
         sodipodi:ry="1.4071107"
         sodipodi:start="3.1455371"
         sodipodi:end="3.1053073"
         sodipodi:open="true"
         sodipodi:arc-type="arc"
         d="m 182.98971,146.22098 a 1.4071107,1.4071107 0 0 1 1.39849,-1.40153 1.4071107,1.4071107 0 0 1 1.41553,1.38433 1.4071107,1.4071107 0 0 1 -1.37002,1.42938 1.4071107,1.4071107 0 0 1 -1.44309,-1.35558" />
      <circle
         style="fill:#081e48;fill-opacity:1;stroke:none;stroke-width:0.101277;stroke-linecap:round;stroke-linejoin:round;stroke-miterlimit:4;stroke-dasharray:none;stroke-opacity:1;stop-color:#000000"
         id="path835-3-6"
         sodipodi:type="arc"
         sodipodi:cx="184.3968"
         sodipodi:cy="156.15947"
         sodipodi:rx="1.4071107"
         sodipodi:ry="1.4071107"
         sodipodi:start="3.1455371"
         sodipodi:end="3.1053073"
         sodipodi:open="true"
         sodipodi:arc-type="arc"
         d="m 182.98971,156.15392 a 1.4071107,1.4071107 0 0 1 1.39849,-1.40153 1.4071107,1.4071107 0 0 1 1.41553,1.38433 1.4071107,1.4071107 0 0 1 -1.37002,1.42938 1.4071107,1.4071107 0 0 1 -1.44309,-1.35558" />
      <path
         style="fill:none;stroke:#fefeff;stroke-width:0.182299;stroke-linecap:butt;stroke-linejoin:miter;stroke-miterlimit:4;stroke-dasharray:none;stroke-opacity:1"
         d="m 180.56758,148.78549 c -0.0294,-0.0864 2.57698,2.4936 2.51666,2.33964"
         id="path895-5-6-7"
         sodipodi:nodetypes="cc" />
      <circle
         style="fill:#081e48;fill-opacity:1;stroke:none;stroke-width:0.101277;stroke-linecap:round;stroke-linejoin:round;stroke-miterlimit:4;stroke-dasharray:none;stroke-opacity:1;stop-color:#000000"
         id="path835"
         sodipodi:type="arc"
         sodipodi:cx="179.19835"
         sodipodi:cy="148.90614"
         sodipodi:rx="1.4071107"
         sodipodi:ry="1.4071107"
         sodipodi:start="3.1455371"
         sodipodi:end="3.1053073"
         sodipodi:open="true"
         sodipodi:arc-type="arc"
         d="m 177.79125,148.90059 a 1.4071107,1.4071107 0 0 1 1.3985,-1.40153 1.4071107,1.4071107 0 0 1 1.41553,1.38433 1.4071107,1.4071107 0 0 1 -1.37003,1.42938 1.4071107,1.4071107 0 0 1 -1.44309,-1.35558" />
      <circle
         style="fill:#081e48;fill-opacity:1;stroke:none;stroke-width:0.101277;stroke-linecap:round;stroke-linejoin:round;stroke-miterlimit:4;stroke-dasharray:none;stroke-opacity:1;stop-color:#000000"
         id="path835-3"
         sodipodi:type="arc"
         sodipodi:cx="179.19835"
         sodipodi:cy="153.47989"
         sodipodi:rx="1.4071107"
         sodipodi:ry="1.4071107"
         sodipodi:start="3.1455371"
         sodipodi:end="3.1053073"
         sodipodi:open="true"
         sodipodi:arc-type="arc"
         d="m 177.79125,153.47434 a 1.4071107,1.4071107 0 0 1 1.3985,-1.40154 1.4071107,1.4071107 0 0 1 1.41553,1.38434 1.4071107,1.4071107 0 0 1 -1.37003,1.42938 1.4071107,1.4071107 0 0 1 -1.44309,-1.35558" />
      <path
         style="fill:none;stroke:#fefeff;stroke-width:0.182299;stroke-linecap:butt;stroke-linejoin:miter;stroke-miterlimit:4;stroke-dasharray:none;stroke-opacity:1"
         d="m 182.14337,151.99595 c 0.11587,-0.10322 0.77528,-0.72589 0.94087,-0.87082"
         id="path895-5-6-7-0-6"
         sodipodi:nodetypes="cc" />
      <circle
         style="fill:#081e48;fill-opacity:1;stroke:none;stroke-width:0.101277;stroke-linecap:round;stroke-linejoin:round;stroke-miterlimit:4;stroke-dasharray:none;stroke-opacity:1;stop-color:#000000"
         id="path835-3-5-2"
         sodipodi:type="arc"
         sodipodi:cx="184.39159"
         sodipodi:cy="151.14569"
         sodipodi:rx="1.4071107"
         sodipodi:ry="1.4071107"
         sodipodi:start="3.1455371"
         sodipodi:end="3.1053073"
         sodipodi:open="true"
         sodipodi:arc-type="arc"
         d="m 182.98449,151.14014 a 1.4071107,1.4071107 0 0 1 1.39849,-1.40153 1.4071107,1.4071107 0 0 1 1.41553,1.38433 1.4071107,1.4071107 0 0 1 -1.37002,1.42938 1.4071107,1.4071107 0 0 1 -1.44309,-1.35558" />
    </g>
    <text
       xml:space="preserve"
       style="font-size:15.6986px;line-height:1.25;font-family:'Liberation Serif';-inkscape-font-specification:'Liberation Serif';letter-spacing:0px;word-spacing:0px;stroke-width:0.264583"
       x="193.15581"
       y="157.96062"
       id="text866"><tspan
         sodipodi:role="line"
         id="tspan864"
         x="193.15581"
         y="157.96062"
         style="font-style:normal;font-variant:normal;font-weight:normal;font-stretch:normal;font-size:15.6986px;font-family:'Oswald Regular';-inkscape-font-specification:'Oswald Regular, ';fill:#ffffff;stroke-width:0.264583">RuNNer</tspan></text>
    <text
       xml:space="preserve"
       style="font-size:10.5833px;line-height:1.25;font-family:'Liberation Serif';-inkscape-font-specification:'Liberation Serif';letter-spacing:0px;word-spacing:0px;stroke-width:0.264583"
       x="178.9285"
       y="167.07312"
       id="text866-3"><tspan
         sodipodi:role="line"
         id="tspan864-6"
         x="178.9285"
         y="167.07312"
         style="font-style:normal;font-variant:normal;font-weight:normal;font-stretch:normal;font-family:'Oswald Regular';-inkscape-font-specification:'Oswald Regular, ';fill:#b3b3b3;stroke-width:0.264583">Documentation</tspan></text>
  </g>
</svg>
